…
#head(data)
```

## ¿En qué meses existe una mayor cantidad de llamadas por código?

``` r
mes <- data %>%
  group_by(Cod, month(`Fecha Creación`)) %>%
  count()
mes
```

    ## # A tibble: 84 x 3
    ## # Groups:   Cod, month(`Fecha Creación`) [84]
    ##    Cod   `month(\`Fecha Creación\`)`     n
    ##    <chr>                       <dbl> <int>
    ##  1 0                               1  1361
    ##  2 0                               2  1236
    ##  3 0                               3  1419
    ##  4 0                               4  1362
    ##  5 0                               5  1404
    ##  6 0                               6  1330
    ##  7 0                               7  1463
    ##  8 0                               8  1442
    ##  9 0                               9  1380
    ## 10 0                              10  1397
    ## # ... with 74 more rows
…
